529448 889824 525
868087 988836 507
902768 90789 525
949632 463217 525
164052 49346 383
883629 235623 525
808589 731616 468
667595 52332 509
446779 144581 449
406026 232473 441
191683 362015 443
271027 546066 470
494966 4541 449
420597 201186 449
270997 193484 443
283196 346032 441
452382 799891 509
821836 739430 468
365939 110539 443
153792 146703 370
360242 847668 525
256981 786365 509
303997 296698 371
973996 159484 525
792745 495818 509
851516 439095 525
89682 460508 449
879157 959 525
948940 795101 525
409118 519595 470
788389 968347 525
285093 392109 441
369587 745401 509
36864 306626 443
874325 858906 432
634729 850456 525
282897 683703 509
893566 393998 525
584922 213430 470
285574 92670 443
163759 659722 509
191384 927495 525
42059 67796 340
32350 668624 509
975912 773961 525
495160 223984 449
691012 996084 525
458722 794411 509
549941 900854 525
805074 317546 509
54032 161656 383
200106 203434 342
642595 973760 525
211912 934663 525
593699 256008 470
311685 187272 443
838270 550938 525
982555 303588 525
365403 869675 525
239097 346582 441
59369 690146 509
146061 138761 375
887587 291292 525
594206 496974 470
258637 616055 470
164408 100962 383
320588 425132 449
595402 890441 525
513586 62130 470
445081 33885 449
839556 865791 419
571750 868226 525
6709 4812 262
882113 712234 525
434247 110457 449
483701 404890 449
223590 269106 443
218355 859799 525
455822 904881 525
928681 797819 525
350997 723628 509
111802 134369 349
152319 892083 525
485580 648376 509
291001 779220 509
721700 887250 525
903377 648440 525
334660 913138 525
977875 443702 525
671799 905005 525
784121 433114 509
119116 727942 509
761415 548561 509
344286 238503 407
480423 55697 449
597150 828190 509
830838 648848 504
879050 184370 525
82539 338793 443
319088 439203 449
167820 454745 449
677114 38954 509
592581 852254 525
683714 894850 525
766925 840315 525
982235 524422 525
504754 593110 470
781511 976080 525
349391 125784 443
79540 302064 443
782423 240307 509
39028 957886 525
200385 499354 449
142610 270359 443
938099 452608 525
75940 7619 340
617015 408442 470
666028 316257 509
487281 184813 449
668001 911179 525
820613 334583 509
65129 254911 443
505552 281797 449
35153 924751 525
275761 603775 470
694855 976606 525
997856 115028 525
776665 295767 509
615867 254666 470
187765 380409 443
291080 421425 449
276702 838157 525
947620 296563 525
836416 43961 509
960194 865882 507
338132 162087 443
401025 625690 470
878146 878367 295
812602 465540 509
871289 324308 525
832128 298740 509
451316 923773 525
960359 616143 525
952282 654404 525
41839 747049 509
956642 218058 525
2660 839713 525
93650 403774 443
547998 70236 470
351618 308159 441
480844 984875 525
933423 48456 525
217491 412159 449
963741 908126 507
404074 781770 509
866687 66826 525
518482 150385 470
75941 914625 525
459991 430148 400
838149 292695 525
865149 897959 445
446228 643091 509
388760 737415 509
83881 7156 351
783121 604548 509
671364 24658 509
763033 777926 468
630942 9700 509
834217 21683 509
112237 651448 509
801570 322046 509
500235 304491 449
742978 669636 504
634849 458154 509
97047 639943 509
436408 216536 449
443861 524852 470
515589 821990 509
853857 644715 525
47977 558624 470
328486 405203 441
190066 981706 525
633810 974568 525
61976 705280 509
5186 891466 525
744188 448443 509
755002 497524 509
751185 126751 509
59684 62255 335
682501 249862 509
376995 881532 525
892875 524505 525
117669 199971 383
292826 175256 443
371279 710235 509
396144 625306 470
558925 594594 434
163707 205604 365
738608 656529 504
921559 280276 525
